{
    "config_dir": "novum.svb",
    "namespace": "NovumSvb",
    "site": {
        "dev": {
            "protocol": "http",
            "domain": "svb.demo.novum.nuidev.nl"
        },
        "test": {
            "protocol": "https",
            "domain": "svb.test.demo.novum.nu"
        },
        "prod": {
            "protocol": "https",
            "domain": "svb.demo.novum.nu"
        }
    },
    "server_admin": "anton@novum.nu"
}